{"map": [
    [
        41,
        41,
        41,
        41,
        41,
        41,
        41,
        41,
        41,
        41,
        41,
        41,
        41,
        41,
        41,
        41,
        41,
        41,
        41,
        41,
        41,
        41,
        41,
        41,
        41,
        41,
        41,
        41,
        41,
        41,
        41,
        41,
        41,
        41,
        41,
        41,
        41,
        41,
        41,
        41,
        41,
        41,
        41,
        41,
        41,
        41,
        41,
        41,
        41,
        41
    ],
    [
        41,
        41,
        41,
        41,
        41,
        41,
        41,
        41,
        41,
        41,
        41,
        41,
        41,
        41,
        41,
        41,
        41,
        41,
        41,
        41,
        41,
        41,
        41,
        41,
        41,
        41,
        41,
        41,
        41,
        41,
        41,
        41,
        41,
        41,
        41,
        41,
        41,
        41,
        41,
        41,
        41,
        41,
        41,
        41,
        41,
        41,
        41,
        41,
        41,
        41
    ],
    [
        41,
        41,
        41,
        41,
        41,
        41,
        41,
        41,
        41,
        41,
        41,
        41,
        41,
        41,
        41,
        41,
        41,
        41,
        41,
        41,
        41,
        41,
        41,
        41,
        41,
        41,
        41,
        41,
        41,
        41,
        41,
        41,
        41,
        41,
        41,
        41,
        41,
        41,
        41,
        41,
        41,
        41,
        41,
        41,
        41,
        41,
        41,
        41,
        41,
        41
    ],
    [
        41,
        41,
        41,
        41,
        41,
        41,
        41,
        41,
        41,
        41,
        41,
        41,
        41,
        41,
        41,
        41,
        41,
        41,
        41,
        41,
        41,
        41,
        41,
        41,
        41,
        41,
        41,
        41,
        41,
        41,
        41,
        41,
        41,
        41,
        41,
        41,
        41,
        41,
        41,
        41,
        41,
        41,
        41,
        41,
        41,
        41,
        41,
        41,
        41,
        41
    ],
    [
        41,
        41,
        41,
        41,
        41,
        41,
        41,
        41,
        41,
        41,
        41,
        41,
        41,
        41,
        41,
        41,
        41,
        41,
        41,
        41,
        41,
        41,
        41,
        41,
        41,
        41,
        41,
        41,
        41,
        41,
        41,
        41,
        41,
        41,
        41,
        41,
        41,
        41,
        41,
        41,
        41,
        41,
        41,
        41,
        41,
        41,
        41,
        41,
        41,
        41
    ],
    [
        41,
        41,
        41,
        41,
        41,
        41,
        41,
        41,
        41,
        41,
        41,
        41,
        41,
        41,
        41,
        41,
        41,
        41,
        41,
        41,
        41,
        41,
        41,
        41,
        41,
        41,
        41,
        41,
        41,
        41,
        41,
        41,
        41,
        41,
        41,
        41,
        41,
        41,
        41,
        41,
        41,
        41,
        41,
        41,
        41,
        41,
        41,
        41,
        41,
        41
    ],
    [
        41,
        41,
        41,
        41,
        41,
        41,
        41,
        41,
        41,
        40,
        40,
        40,
        40,
        40,
        40,
        40,
        41,
        41,
        41,
        41,
        41,
        41,
        41,
        41,
        41,
        41,
        41,
        41,
        41,
        41,
        41,
        41,
        41,
        41,
        41,
        41,
        41,
        41,
        41,
        41,
        41,
        41,
        41,
        41,
        41,
        41,
        41,
        41,
        41,
        41
    ],
    [
        41,
        41,
        41,
        41,
        41,
        41,
        41,
        41,
        41,
        40,
        43,
        43,
        43,
        43,
        43,
        40,
        41,
        41,
        41,
        41,
        41,
        41,
        41,
        41,
        41,
        41,
        41,
        41,
        41,
        41,
        41,
        41,
        41,
        41,
        41,
        41,
        41,
        41,
        41,
        41,
        41,
        41,
        41,
        41,
        41,
        41,
        41,
        41,
        41,
        41
    ],
    [
        41,
        41,
        41,
        41,
        41,
        41,
        41,
        41,
        41,
        40,
        43,
        43,
        44,
        43,
        43,
        40,
        41,
        41,
        41,
        41,
        41,
        41,
        41,
        41,
        41,
        41,
        41,
        41,
        41,
        41,
        41,
        41,
        41,
        41,
        41,
        41,
        41,
        41,
        41,
        41,
        41,
        41,
        41,
        41,
        41,
        41,
        41,
        41,
        41,
        41
    ],
    [
        41,
        41,
        41,
        41,
        41,
        41,
        41,
        41,
        41,
        40,
        43,
        43,
        43,
        43,
        43,
        40,
        41,
        41,
        41,
        41,
        41,
        41,
        41,
        41,
        41,
        41,
        41,
        41,
        41,
        41,
        41,
        41,
        41,
        41,
        41,
        41,
        41,
        41,
        41,
        41,
        41,
        41,
        41,
        41,
        41,
        41,
        41,
        41,
        41,
        41
    ],
    [
        41,
        41,
        41,
        41,
        41,
        41,
        41,
        41,
        41,
        40,
        43,
        43,
        43,
        43,
        43,
        40,
        41,
        41,
        41,
        41,
        41,
        41,
        41,
        41,
        41,
        41,
        41,
        41,
        41,
        41,
        41,
        41,
        41,
        41,
        41,
        41,
        41,
        41,
        41,
        41,
        41,
        41,
        41,
        41,
        41,
        41,
        41,
        41,
        41,
        41
    ],
    [
        41,
        41,
        41,
        41,
        41,
        41,
        41,
        41,
        41,
        40,
        43,
        43,
        43,
        43,
        43,
        40,
        41,
        41,
        41,
        41,
        41,
        41,
        41,
        41,
        41,
        41,
        41,
        41,
        41,
        41,
        41,
        41,
        41,
        41,
        41,
        41,
        41,
        41,
        41,
        41,
        41,
        41,
        41,
        41,
        41,
        41,
        41,
        41,
        41,
        41
    ],
    [
        41,
        41,
        41,
        41,
        41,
        41,
        41,
        41,
        41,
        40,
        43,
        43,
        43,
        43,
        43,
        40,
        41,
        41,
        41,
        41,
        41,
        41,
        41,
        41,
        41,
        41,
        41,
        41,
        41,
        41,
        41,
        41,
        41,
        41,
        41,
        41,
        41,
        41,
        41,
        41,
        41,
        41,
        41,
        41,
        41,
        41,
        41,
        41,
        41,
        41
    ],
    [
        41,
        41,
        41,
        41,
        41,
        41,
        41,
        41,
        41,
        40,
        40,
        40,
        10,
        40,
        40,
        40,
        41,
        41,
        41,
        41,
        41,
        41,
        41,
        41,
        41,
        41,
        41,
        41,
        41,
        41,
        41,
        41,
        41,
        41,
        41,
        41,
        41,
        41,
        41,
        41,
        41,
        41,
        41,
        41,
        41,
        41,
        41,
        41,
        41,
        41
    ],
    [
        41,
        41,
        41,
        41,
        41,
        41,
        41,
        41,
        41,
        41,
        41,
        41,
        41,
        41,
        41,
        41,
        41,
        41,
        41,
        41,
        41,
        41,
        41,
        41,
        41,
        41,
        41,
        41,
        41,
        41,
        41,
        41,
        41,
        41,
        41,
        41,
        41,
        41,
        41,
        41,
        41,
        41,
        41,
        41,
        41,
        41,
        41,
        41,
        41,
        41
    ],
    [
        41,
        41,
        41,
        41,
        41,
        41,
        41,
        41,
        41,
        41,
        41,
        41,
        41,
        41,
        41,
        41,
        41,
        41,
        41,
        41,
        41,
        41,
        41,
        41,
        41,
        41,
        41,
        41,
        41,
        41,
        41,
        41,
        41,
        41,
        41,
        41,
        41,
        41,
        41,
        41,
        41,
        41,
        41,
        41,
        41,
        41,
        41,
        41,
        41,
        41
    ],
    [
        41,
        41,
        41,
        41,
        41,
        41,
        41,
        41,
        41,
        41,
        41,
        41,
        41,
        41,
        41,
        41,
        41,
        41,
        41,
        41,
        41,
        41,
        41,
        41,
        41,
        41,
        41,
        41,
        41,
        41,
        41,
        41,
        41,
        41,
        41,
        41,
        41,
        41,
        41,
        41,
        41,
        41,
        41,
        41,
        41,
        41,
        41,
        41,
        41,
        41
    ],
    [
        41,
        41,
        41,
        41,
        41,
        41,
        41,
        41,
        41,
        41,
        41,
        41,
        41,
        41,
        41,
        41,
        41,
        41,
        41,
        41,
        41,
        41,
        41,
        41,
        41,
        41,
        41,
        41,
        41,
        41,
        41,
        41,
        41,
        41,
        41,
        41,
        41,
        41,
        41,
        41,
        41,
        41,
        41,
        41,
        41,
        41,
        41,
        41,
        41,
        41
    ],
    [
        41,
        41,
        41,
        41,
        41,
        41,
        41,
        41,
        41,
        41,
        41,
        41,
        41,
        41,
        41,
        41,
        41,
        41,
        41,
        41,
        41,
        41,
        41,
        41,
        41,
        41,
        41,
        41,
        41,
        41,
        41,
        41,
        41,
        41,
        41,
        41,
        41,
        41,
        41,
        41,
        41,
        41,
        41,
        41,
        41,
        41,
        41,
        41,
        41,
        41
    ],
    [
        41,
        41,
        41,
        41,
        41,
        41,
        41,
        41,
        41,
        41,
        41,
        41,
        41,
        41,
        41,
        41,
        41,
        41,
        41,
        41,
        41,
        41,
        41,
        41,
        41,
        41,
        41,
        41,
        41,
        41,
        41,
        41,
        41,
        41,
        41,
        41,
        41,
        41,
        41,
        41,
        41,
        41,
        41,
        41,
        41,
        41,
        41,
        41,
        41,
        41
    ],
    [
        41,
        41,
        41,
        41,
        41,
        41,
        41,
        41,
        41,
        41,
        41,
        41,
        41,
        41,
        41,
        41,
        41,
        41,
        41,
        41,
        41,
        41,
        41,
        41,
        41,
        41,
        41,
        41,
        41,
        41,
        41,
        41,
        41,
        41,
        41,
        41,
        41,
        41,
        41,
        41,
        41,
        41,
        41,
        41,
        41,
        41,
        41,
        41,
        41,
        41
    ],
    [
        41,
        41,
        41,
        41,
        41,
        41,
        41,
        41,
        41,
        41,
        41,
        41,
        41,
        41,
        41,
        41,
        41,
        41,
        41,
        41,
        41,
        41,
        41,
        41,
        41,
        41,
        41,
        41,
        41,
        41,
        41,
        41,
        41,
        41,
        41,
        41,
        41,
        41,
        41,
        41,
        41,
        41,
        41,
        41,
        41,
        41,
        41,
        41,
        41,
        41
    ],
    [
        41,
        41,
        41,
        41,
        41,
        41,
        41,
        41,
        41,
        41,
        41,
        41,
        41,
        41,
        41,
        41,
        41,
        41,
        41,
        41,
        41,
        41,
        41,
        41,
        41,
        41,
        41,
        41,
        41,
        41,
        41,
        41,
        41,
        41,
        41,
        41,
        41,
        41,
        41,
        41,
        41,
        41,
        41,
        41,
        41,
        41,
        41,
        41,
        41,
        41
    ],
    [
        41,
        41,
        41,
        41,
        41,
        41,
        41,
        41,
        41,
        41,
        41,
        41,
        41,
        41,
        41,
        41,
        41,
        41,
        41,
        41,
        41,
        41,
        41,
        41,
        41,
        41,
        41,
        41,
        41,
        41,
        41,
        41,
        41,
        41,
        41,
        41,
        41,
        41,
        41,
        41,
        41,
        41,
        41,
        41,
        41,
        41,
        41,
        41,
        41,
        41
    ],
    [
        41,
        41,
        41,
        41,
        41,
        41,
        41,
        41,
        41,
        41,
        41,
        41,
        41,
        41,
        41,
        41,
        41,
        41,
        41,
        41,
        41,
        41,
        41,
        41,
        41,
        41,
        41,
        41,
        41,
        41,
        41,
        41,
        41,
        41,
        41,
        41,
        41,
        41,
        41,
        41,
        41,
        41,
        41,
        41,
        41,
        41,
        41,
        41,
        41,
        41
    ],
    [
        41,
        41,
        41,
        41,
        41,
        41,
        41,
        41,
        41,
        41,
        41,
        41,
        41,
        41,
        41,
        41,
        41,
        41,
        41,
        41,
        41,
        41,
        41,
        41,
        41,
        41,
        41,
        41,
        41,
        41,
        41,
        41,
        41,
        41,
        41,
        41,
        41,
        41,
        41,
        41,
        41,
        41,
        41,
        41,
        41,
        41,
        41,
        41,
        41,
        41
    ],
    [
        41,
        41,
        41,
        41,
        41,
        41,
        41,
        41,
        41,
        41,
        41,
        41,
        41,
        41,
        41,
        41,
        41,
        41,
        41,
        41,
        41,
        41,
        41,
        41,
        41,
        41,
        41,
        41,
        41,
        41,
        41,
        41,
        41,
        41,
        41,
        41,
        41,
        41,
        41,
        41,
        41,
        41,
        41,
        41,
        41,
        41,
        41,
        41,
        41,
        41
    ],
    [
        41,
        41,
        41,
        41,
        41,
        41,
        41,
        41,
        41,
        41,
        41,
        41,
        41,
        41,
        41,
        41,
        41,
        41,
        41,
        41,
        41,
        41,
        41,
        41,
        41,
        41,
        41,
        41,
        41,
        41,
        41,
        41,
        41,
        41,
        41,
        41,
        41,
        41,
        41,
        41,
        41,
        41,
        41,
        41,
        41,
        41,
        41,
        41,
        41,
        41
    ],
    [
        41,
        41,
        41,
        41,
        41,
        41,
        41,
        41,
        41,
        41,
        41,
        41,
        41,
        41,
        41,
        41,
        41,
        41,
        41,
        41,
        41,
        41,
        41,
        41,
        41,
        41,
        41,
        41,
        41,
        41,
        41,
        41,
        41,
        41,
        41,
        41,
        41,
        41,
        41,
        41,
        41,
        41,
        41,
        41,
        41,
        41,
        41,
        41,
        41,
        41
    ],
    [
        41,
        41,
        41,
        41,
        41,
        41,
        41,
        41,
        41,
        41,
        41,
        41,
        41,
        41,
        41,
        41,
        41,
        41,
        41,
        41,
        41,
        41,
        41,
        41,
        41,
        41,
        41,
        41,
        41,
        41,
        41,
        41,
        41,
        41,
        41,
        41,
        41,
        41,
        41,
        41,
        41,
        41,
        41,
        41,
        41,
        41,
        41,
        41,
        41,
        41
    ],
    [
        41,
        41,
        41,
        41,
        41,
        41,
        41,
        41,
        41,
        41,
        41,
        41,
        41,
        41,
        41,
        41,
        41,
        41,
        41,
        41,
        41,
        41,
        41,
        41,
        41,
        41,
        41,
        41,
        41,
        41,
        41,
        41,
        41,
        41,
        41,
        41,
        41,
        41,
        41,
        41,
        41,
        41,
        41,
        41,
        41,
        41,
        41,
        41,
        41,
        41
    ],
    [
        41,
        41,
        41,
        41,
        41,
        41,
        41,
        41,
        41,
        41,
        41,
        41,
        41,
        41,
        41,
        41,
        41,
        41,
        41,
        41,
        41,
        41,
        41,
        41,
        41,
        41,
        41,
        41,
        41,
        41,
        41,
        41,
        41,
        41,
        41,
        41,
        41,
        41,
        41,
        41,
        41,
        41,
        41,
        41,
        41,
        41,
        41,
        41,
        41,
        41
    ],
    [
        41,
        41,
        41,
        41,
        41,
        41,
        41,
        41,
        41,
        41,
        41,
        41,
        41,
        41,
        41,
        41,
        41,
        41,
        41,
        41,
        41,
        41,
        41,
        41,
        41,
        41,
        41,
        41,
        41,
        41,
        41,
        41,
        41,
        41,
        41,
        41,
        41,
        41,
        41,
        41,
        41,
        41,
        41,
        41,
        41,
        41,
        41,
        41,
        41,
        41
    ],
    [
        41,
        41,
        41,
        41,
        41,
        41,
        41,
        41,
        41,
        41,
        41,
        41,
        41,
        41,
        41,
        41,
        41,
        41,
        41,
        41,
        41,
        41,
        41,
        41,
        41,
        41,
        41,
        41,
        41,
        41,
        41,
        41,
        41,
        41,
        41,
        41,
        41,
        41,
        41,
        41,
        41,
        41,
        41,
        41,
        41,
        41,
        41,
        41,
        41,
        41
    ],
    [
        41,
        41,
        41,
        41,
        41,
        41,
        41,
        41,
        41,
        41,
        41,
        41,
        41,
        41,
        41,
        41,
        41,
        41,
        41,
        41,
        41,
        41,
        41,
        41,
        41,
        41,
        41,
        41,
        41,
        41,
        41,
        41,
        41,
        41,
        41,
        41,
        41,
        41,
        41,
        41,
        41,
        41,
        41,
        41,
        41,
        41,
        41,
        41,
        41,
        41
    ],
    [
        41,
        41,
        41,
        41,
        41,
        41,
        41,
        41,
        41,
        41,
        41,
        41,
        41,
        41,
        41,
        41,
        41,
        41,
        41,
        41,
        41,
        41,
        41,
        41,
        41,
        41,
        41,
        41,
        41,
        41,
        41,
        41,
        41,
        41,
        41,
        41,
        41,
        41,
        41,
        41,
        41,
        41,
        41,
        41,
        41,
        41,
        41,
        41,
        41,
        41
    ],
    [
        41,
        41,
        41,
        41,
        41,
        41,
        41,
        41,
        41,
        41,
        41,
        41,
        41,
        41,
        41,
        41,
        41,
        41,
        41,
        41,
        41,
        41,
        41,
        41,
        41,
        41,
        41,
        41,
        41,
        41,
        41,
        41,
        41,
        41,
        41,
        41,
        41,
        41,
        41,
        41,
        41,
        41,
        41,
        41,
        41,
        41,
        41,
        41,
        41,
        41
    ],
    [
        41,
        41,
        41,
        41,
        41,
        41,
        41,
        41,
        41,
        41,
        41,
        41,
        41,
        41,
        41,
        41,
        41,
        41,
        41,
        41,
        41,
        41,
        41,
        41,
        41,
        41,
        41,
        41,
        41,
        41,
        41,
        41,
        41,
        41,
        41,
        41,
        41,
        41,
        41,
        41,
        41,
        41,
        41,
        41,
        41,
        41,
        41,
        41,
        41,
        41
    ],
    [
        41,
        41,
        41,
        41,
        41,
        41,
        41,
        41,
        41,
        41,
        41,
        41,
        41,
        41,
        41,
        41,
        41,
        41,
        41,
        41,
        41,
        41,
        41,
        41,
        41,
        41,
        41,
        41,
        41,
        41,
        41,
        41,
        41,
        41,
        41,
        41,
        41,
        41,
        41,
        41,
        41,
        41,
        41,
        41,
        41,
        41,
        41,
        41,
        41,
        41
    ],
    [
        41,
        41,
        41,
        41,
        41,
        41,
        41,
        41,
        41,
        41,
        41,
        41,
        41,
        41,
        41,
        41,
        41,
        41,
        41,
        41,
        41,
        41,
        41,
        41,
        41,
        41,
        41,
        41,
        41,
        41,
        41,
        41,
        41,
        41,
        41,
        41,
        41,
        41,
        41,
        41,
        41,
        41,
        41,
        41,
        41,
        41,
        41,
        41,
        41,
        41
    ],
    [
        41,
        41,
        41,
        41,
        41,
        41,
        41,
        41,
        41,
        41,
        41,
        41,
        41,
        41,
        41,
        41,
        41,
        41,
        41,
        41,
        41,
        41,
        41,
        41,
        41,
        41,
        41,
        41,
        41,
        41,
        41,
        41,
        41,
        41,
        41,
        41,
        41,
        41,
        41,
        41,
        41,
        41,
        41,
        41,
        41,
        41,
        41,
        41,
        41,
        41
    ],
    [
        41,
        41,
        41,
        41,
        41,
        41,
        41,
        41,
        41,
        41,
        41,
        41,
        41,
        41,
        41,
        41,
        41,
        41,
        41,
        41,
        41,
        41,
        41,
        41,
        41,
        41,
        41,
        41,
        41,
        41,
        41,
        41,
        41,
        41,
        41,
        41,
        41,
        41,
        41,
        41,
        41,
        41,
        41,
        41,
        41,
        41,
        41,
        41,
        41,
        41
    ],
    [
        41,
        41,
        41,
        41,
        41,
        41,
        41,
        41,
        41,
        41,
        41,
        41,
        41,
        41,
        41,
        41,
        41,
        41,
        41,
        41,
        41,
        41,
        41,
        41,
        41,
        41,
        41,
        41,
        41,
        41,
        41,
        41,
        41,
        41,
        41,
        41,
        41,
        41,
        41,
        41,
        41,
        41,
        41,
        41,
        41,
        41,
        41,
        41,
        41,
        41
    ],
    [
        41,
        41,
        41,
        41,
        41,
        41,
        41,
        41,
        41,
        41,
        41,
        41,
        41,
        41,
        41,
        41,
        41,
        41,
        41,
        41,
        41,
        41,
        41,
        41,
        41,
        41,
        41,
        41,
        41,
        41,
        41,
        41,
        41,
        41,
        41,
        41,
        41,
        41,
        41,
        41,
        41,
        41,
        41,
        41,
        41,
        41,
        41,
        41,
        41,
        41
    ],
    [
        41,
        41,
        41,
        41,
        41,
        41,
        41,
        41,
        41,
        41,
        41,
        41,
        41,
        41,
        41,
        41,
        41,
        41,
        41,
        41,
        41,
        41,
        41,
        41,
        41,
        41,
        41,
        41,
        41,
        41,
        41,
        41,
        41,
        41,
        41,
        41,
        41,
        41,
        41,
        41,
        41,
        41,
        41,
        41,
        41,
        41,
        41,
        41,
        41,
        41
    ],
    [
        41,
        41,
        41,
        41,
        41,
        41,
        41,
        41,
        41,
        41,
        41,
        41,
        41,
        41,
        41,
        41,
        41,
        41,
        41,
        41,
        41,
        41,
        41,
        41,
        41,
        41,
        41,
        41,
        41,
        41,
        41,
        41,
        41,
        41,
        41,
        41,
        41,
        41,
        41,
        41,
        41,
        41,
        41,
        41,
        41,
        41,
        41,
        41,
        41,
        41
    ],
    [
        41,
        41,
        41,
        41,
        41,
        41,
        41,
        41,
        41,
        41,
        41,
        41,
        41,
        41,
        41,
        41,
        41,
        41,
        41,
        41,
        41,
        41,
        41,
        41,
        41,
        41,
        41,
        41,
        41,
        41,
        41,
        41,
        41,
        41,
        41,
        41,
        41,
        41,
        41,
        41,
        41,
        41,
        41,
        41,
        41,
        41,
        41,
        41,
        41,
        41
    ],
    [
        41,
        41,
        41,
        41,
        41,
        41,
        41,
        41,
        41,
        41,
        41,
        41,
        41,
        41,
        41,
        41,
        41,
        41,
        41,
        41,
        41,
        41,
        41,
        41,
        41,
        41,
        41,
        41,
        41,
        41,
        41,
        41,
        41,
        41,
        41,
        41,
        41,
        41,
        41,
        41,
        41,
        41,
        41,
        41,
        41,
        41,
        41,
        41,
        41,
        41
    ],
    [
        41,
        41,
        41,
        41,
        41,
        41,
        41,
        41,
        41,
        41,
        41,
        41,
        41,
        41,
        41,
        41,
        41,
        41,
        41,
        41,
        41,
        41,
        41,
        41,
        41,
        41,
        41,
        41,
        41,
        41,
        41,
        41,
        41,
        41,
        41,
        41,
        41,
        41,
        41,
        41,
        41,
        41,
        41,
        41,
        41,
        41,
        41,
        41,
        41,
        41
    ],
    [
        41,
        41,
        41,
        41,
        41,
        41,
        41,
        41,
        41,
        41,
        41,
        41,
        41,
        41,
        41,
        41,
        41,
        41,
        41,
        41,
        41,
        41,
        41,
        41,
        41,
        41,
        41,
        41,
        41,
        41,
        41,
        41,
        41,
        41,
        41,
        41,
        41,
        41,
        41,
        41,
        41,
        41,
        41,
        41,
        41,
        41,
        41,
        41,
        41,
        41
    ]
]}
